<?xml version="1.0" encoding="UTF-8" standalone="no"?>
<svg
   xmlns:dc="http://purl.org/dc/elements/1.1/"
   xmlns:cc="http://creativecommons.org/ns#"
   xmlns:rdf="http://www.w3.org/1999/02/22-rdf-syntax-ns#"
   xmlns:svg="http://www.w3.org/2000/svg"
   xmlns="http://www.w3.org/2000/svg"
   xmlns:xlink="http://www.w3.org/1999/xlink"
   xmlns:sodipodi="http://sodipodi.sourceforge.net/DTD/sodipodi-0.dtd"
   xmlns:inkscape="http://www.inkscape.org/namespaces/inkscape"
   width="145.75583mm"
   height="126.55962mm"
   viewBox="0 0 860.83425 747.45839"
   version="1.1"
   id="svg816"
   sodipodi:docname="enfoques_innovacion-disruptiva.svg"
   inkscape:version="0.92.2 5c3e80d, 2017-08-06">
  <metadata
     id="metadata822">
    <rdf:RDF>
      <cc:Work
         rdf:about="">
        <dc:format>image/svg+xml</dc:format>
        <dc:type
           rdf:resource="http://purl.org/dc/dcmitype/StillImage" />
        <dc:title></dc:title>
      </cc:Work>
    </rdf:RDF>
  </metadata>
  <defs
     id="defs820" />
  <sodipodi:namedview
     pagecolor="#ffffff"
     bordercolor="#666666"
     borderopacity="1"
     objecttolerance="10"
     gridtolerance="10"
     guidetolerance="10"
     inkscape:pageopacity="0"
     inkscape:pageshadow="2"
     inkscape:window-width="1362"
     inkscape:window-height="724"
     id="namedview818"
     showgrid="false"
     fit-margin-top="0"
     fit-margin-left="0"
     fit-margin-right="0"
     fit-margin-bottom="0"
     inkscape:zoom="0.7392779"
     inkscape:cx="116.09378"
     inkscape:cy="198.70704"
     inkscape:window-x="0"
     inkscape:window-y="22"
     inkscape:window-maximized="0"
     inkscape:current-layer="a5969" />
  <path
     id="Selection #4"
     d="m 470.30633,199.75082 c -10.37326,-14.06722 -11.72074,-11.72074 -24.88189,-19.7243 -4.2283,-2.56718 -10.60559,-3.31062 -10.60559,3.46162 0,8.49145 8.52629,3.21769 15.73995,6.40053 8.5379,3.76365 13.90458,10.90761 17.66823,19.15511 12.41772,27.19351 0.94091,45.24508 0.91768,70.8588 0,0 -22.07078,-4.32123 -22.07078,-4.32123 -3.89142,-0.54596 -10.5475,-0.82474 -13.89297,-2.66011 -4.73941,-2.60203 -13.04499,-14.85711 -16.30914,-19.73592 -11.27933,-16.85509 -17.91217,-36.12637 -22.80259,-55.75774 0,0 -3.91466,-17.4243 -3.91466,-17.4243 9.51366,-5.08789 6.60962,-17.94702 -3.48485,-19.46874 -6.07529,-0.91768 -11.56974,2.8692 -12.49904,9.01417 -1.5101,9.95508 6.14497,7.46921 9.15357,19.74753 6.43536,26.28745 9.07224,36.02183 22.21016,60.35776 0,0 4.85557,9.38588 4.85557,9.38588 0,0 9.9667,13.89298 9.9667,13.89298 0,0 -31.36373,0 -31.36373,0 -4.19345,0.0581 -16.58793,2.17223 -19.42228,0.80152 -3.03182,-1.44041 -7.32982,-14.38085 -6.87678,-17.73794 0.0464,-2.56718 2.3,-5.65709 0,-9.51366 -3.19447,-6.11012 -13.53288,-3.8682 -12.97531,4.27476 0.32527,4.73941 4.34447,4.97173 6.83034,8.5379 1.81212,2.60203 5.11112,13.71873 5.72677,17.12227 -16.00711,1.34749 -38.31021,9.30458 -53.4345,15.17076 0,0 -15.10105,6.2379 -15.10105,6.2379 -2.20708,0.91767 -5.62224,2.78788 -8.02679,2.21869 -2.97376,-0.69697 -5.47123,-4.91365 -7.00457,-7.36467 -3.34546,-5.36668 -9.85053,-19.38743 -9.85053,-25.55563 0,-3.18284 1.71919,-6.00558 1.41717,-9.26973 -0.39494,-4.32122 -3.7288,-6.34244 -7.87579,-5.44799 -4.35606,0.95253 -6.13334,4.66971 -5.41314,8.85154 0.78991,4.60002 3.42679,4.39092 6.13335,10.53589 6.57477,14.97328 6.63285,19.5733 17.84248,33.66374 -9.42074,2.24193 -6.92325,4.5884 -18.58591,4.64648 -22.61673,0.11616 -21.09501,0.66212 -42.97993,4.64648 -6.01719,-10.29195 -21.0137,-5.68032 -21.93138,5.8081 -0.68536,8.52628 6.7374,14.88035 14.96166,13.2773 8.37528,-1.63788 8.28235,-7.85254 13.02176,-10.59396 4.21668,-2.4394 27.71625,-4.96011 33.44302,-5.00658 -24.87027,17.66823 -44.89659,36.20768 -62.14664,61.56583 -4.6581,6.83034 -13.20761,18.09805 -15.68186,25.55565 0,0 -17.4243,-4.64649 -17.4243,-4.64649 -3.21768,-10.55912 -12.49902,-6.84194 -14.12529,-1.13839 -0.55758,2.00961 -0.11617,3.92628 1.05707,5.61063 4.55355,6.55153 10.48943,1.27778 14.55509,1.67273 0,0 12.45257,3.14799 12.45257,3.14799 0,0 -4.97173,11.6162 -4.97173,11.6162 -10.88438,25.86927 -17.93542,50.72792 -18.26067,78.99013 0,0 -0.95253,11.6162 -0.95253,11.6162 0,0 0.95253,8.13135 0.95253,8.13135 0,0 0,12.77781 0,12.77781 0,0 1.16162,11.6162 1.16162,11.6162 -6.72578,-10.43136 -8.88639,-17.58693 -12.63842,-29.0405 0,0 -4.1586,-12.77781 -4.1586,-12.77781 -0.59242,-6.33083 6.65608,-9.37428 2.84597,-18.5743 -3.96112,-9.58337 -16.61116,-11.01216 -22.36118,-2.2884 -1.41718,2.16062 -1.90506,4.37931 -1.95152,6.92327 -0.2207,11.36062 9.58336,10.67527 13.20761,17.49398 0,0 16.95965,41.74861 16.95965,41.74861 0,0 11.76721,19.74753 11.76721,19.74753 0,0 4.48386,15.10106 4.48386,15.10106 0,0 15.4263,41.8183 15.4263,41.8183 7.06265,13.49803 18.95764,33.54758 28.30867,45.30317 24.59149,30.95717 62.08857,57.97645 100.28262,69.18607 0,0 12.77782,2.69496 12.77782,2.69496 8.50305,1.87021 24.08038,4.68133 32.52535,4.78587 8.15457,0.0929 16.33237,-1.05707 24.39402,-2.17222 22.61673,-3.13638 38.98395,-7.03942 55.42087,-24.64957 18.2258,-19.5036 33.47788,-57.54665 49.32237,-72.72901 8.42175,-8.06165 19.23642,-13.25409 30.00464,-17.2849 6.749,-2.52072 13.63742,-4.93688 20.90915,-5.12274 2.55556,-0.0581 6.74901,-0.16263 9.09548,0.63889 2.55556,0.85959 4.54194,3.03182 7.19043,3.24092 4.04244,0.32524 6.74901,-3.47325 5.69194,-7.26013 -1.97476,-7.08588 -9.32781,-2.3697 -15.11268,-2.38132 -8.6773,-0.0116 -25.50916,3.25254 -33.62889,6.31922 0,0 -12.73135,6.40051 -12.73135,6.40051 0,0 33.68698,-33.48948 33.68698,-33.48948 0,0 17.42429,-14.45056 17.42429,-14.45056 15.84449,-13.50964 26.11321,-24.06875 47.62639,-28.19251 11.99955,-2.3 24.11524,-1.89344 36.01021,0.90607 0,0 12.77782,3.20607 12.77782,3.20607 0.22071,4.34446 0.25557,7.42275 3.77527,10.52427 8.08487,7.12073 20.56066,3.31062 21.943,-7.03941 0.95253,-7.03942 -3.68234,-12.8359 -10.61721,-13.97429 -6.06365,-0.99899 -8.31719,3.32223 -15.10106,2.35809 0,0 -10.45457,-2.90405 -10.45457,-2.90405 0,0 -19.74753,-2.7995 -19.74753,-2.7995 -13.90459,-0.95253 -29.35414,3.31061 -41.81831,9.18841 8.93286,-12.53387 20.93238,-22.31472 31.16626,-33.68697 12.37124,-13.74196 23.32532,-30.73646 30.87585,-47.62641 0,0 6.48183,-13.69549 6.48183,-13.69549 2.17223,-3.0783 5.50608,-4.49548 6.45861,-8.42175 1.0803,-4.42577 -1.69597,-8.72377 -6.44699,-8.72377 -2.78788,0 -5.25052,1.63789 -6.22628,4.25154 -1.41718,3.5894 0.84798,6.50506 0,10.65205 -0.75506,3.96113 -6.01719,15.60055 -8.07326,19.42228 -3.74042,6.96972 -13.14954,23.17431 -17.84247,29.0405 0,0 -31.64253,33.68697 -31.64253,33.68697 0,0 -19.85208,22.07077 -19.85208,22.07077 5.75003,-13.6258 7.48084,-22.46573 6.55154,-37.17183 -0.68536,-6.35406 2.60203,-9.746 0,-13.57934 -2.16062,-3.74042 -9.37428,-3.24092 -10.43135,2.06768 -1.12676,5.70356 3.7985,4.05406 3.87981,16.15814 0.0581,9.11871 -0.0349,16.77379 -3.13637,25.55563 -8.5379,24.21977 -32.88545,39.10011 -50.28651,56.91936 -24.68443,25.31169 -34.23294,39.73901 -51.61076,69.69719 0,0 -12.28994,20.90914 -12.28994,20.90914 -1.10354,-3.90304 -1.13839,-5.28536 -1.16162,-9.29296 -0.1394,-26.35715 0.0116,-44.73396 13.78842,-68.53556 8.61922,-14.86873 18.95764,-23.88289 30.24858,-36.01021 8.23588,-8.83992 25.33492,-31.30565 31.10817,-41.8183 8.61922,-15.69348 14.6248,-32.51373 18.67885,-49.94964 0,0 6.91163,-32.52536 6.91163,-32.52536 3.62426,-12.20862 8.93286,-22.47734 14.75257,-33.68696 8.49144,-16.35561 28.42484,-37.69456 43.65367,-48.00974 3.54294,-2.39295 14.76419,-10.80307 18.58591,-10.25711 4.05406,0.58081 10.12933,8.70053 12.9753,11.8369 11.10508,12.28994 20.13087,26.41523 28.61069,40.62185 20.28188,34.01222 31.08494,81.46438 32.80415,120.80844 0,0 1.02222,10.45459 1.02222,10.45459 0,0 -1.06869,12.7778 -1.06869,12.7778 0,0 0,4.64648 0,4.64648 0,0 -2.66011,25.55563 -2.66011,25.55563 0,0 -12.44095,52.27289 -12.44095,52.27289 0,0 4.64647,0 4.64647,0 0,0 6.9465,-20.90916 6.9465,-20.90916 0,0 7.44598,-30.20211 7.44598,-30.20211 8.73538,-48.12589 4.72779,-100.51494 -12.55711,-146.36407 -5.77326,-15.29854 -13.90459,-33.71021 -22.32633,-47.62641 0,0 -16.68087,-25.55563 -16.68087,-25.55563 0,0 -15.10105,-16.26268 -15.10105,-16.26268 0,0 24.39401,-10.45457 24.39401,-10.45457 2.68335,2.31162 4.58841,4.18182 8.13134,5.14597 19.37582,5.28536 20.01471,-27.21674 1.16162,-24.1733 -8.31719,1.34747 -9.25811,8.43335 -12.24347,11.24448 -1.85859,1.75403 -15.7051,7.01617 -19.12026,8.45659 -2.28839,0.95252 -5.64547,2.60202 -8.13134,2.05606 -2.89243,-0.63889 -9.11871,-6.53991 -11.6162,-8.68891 -7.42274,-6.38891 -14.96164,-13.09146 -23.23239,-18.37682 -17.9354,-11.45357 -35.76627,-23.20917 -55.75773,-30.88748 0,0 -13.93945,-4.8091 -13.93945,-4.8091 -8.80507,-3.24092 -17.49399,-6.64446 -26.71725,-8.50306 0,0 7.53892,-11.61619 7.53892,-11.61619 0,0 21.98946,-27.87887 21.98946,-27.87887 5.72678,-7.70154 11.89498,-8.53791 9.26972,-14.97328 -1.89344,-4.63486 -7.3763,-4.6581 -9.72276,-0.96414 -2.3697,3.74041 1.34748,3.67071 -4.71617,12.46417 -6.76063,9.8273 -25.21876,31.7703 -29.00565,40.64508 0,0 -9.29295,-1.16162 -9.29295,-1.16162 3.11314,-12.66167 5.83133,-34.58142 5.8081,-47.62641 -0.0233,-17.49399 -7.17881,-43.44457 -0.60404,-59.24261 4.06566,-9.79245 13.04498,-17.55207 23.82481,-18.5046 6.56316,-0.58081 17.09905,7.92225 19.94501,-1.37071 1.33586,-4.36768 -2.89243,-8.6076 -7.15558,-8.64245 -3.33384,-0.0232 -5.99395,2.42779 -9.29295,3.48486 -3.84496,1.2197 -8.2475,0.25556 -16.26267,4.50708 -19.44552,10.29195 -19.74754,25.81119 -19.74754,44.91984 z m 1.16163,0 c 0,0 0,1.16162 0,1.16162 0,0 -1.16163,-1.16162 -1.16163,-1.16162 0,0 1.16163,0 1.16163,0 z m -51.11128,379.84963 c 0,0 -15.12429,-40.65668 -15.12429,-40.65668 0,0 -9.52527,-18.58591 -9.52527,-18.58591 0,0 -16.65764,-36.01022 -16.65764,-36.01022 0,0 -8.64244,-40.65669 -8.64244,-40.65669 3.63586,-3.50809 3.86819,-4.26314 3.48486,-9.29295 0,0 23.23239,-13.31217 23.23239,-13.31217 0,0 16.26268,-8.89801 16.26268,-8.89801 2.69495,-1.4404 6.48183,-3.98436 9.29296,-4.6697 3.97273,-0.97577 9.28134,0.58081 11.15154,-4.61164 1.40556,-3.8682 -2.67173,-8.0384 -6.38891,-7.14396 -4.39092,1.06869 -2.99697,5.49446 -9.47881,10.07125 0,0 -30.13241,17.31974 -30.13241,17.31974 -2.91567,1.83537 -14.53187,10.4662 -17.2036,6.11013 -1.6495,-2.69496 1.18486,-10.52428 2.0793,-13.45157 3.12476,-10.25709 4.71618,-20.81622 6.49346,-31.36373 2.18384,-13.06822 1.81213,-26.27584 1.66111,-39.49506 0,0 -3.15961,-25.55563 -3.15961,-25.55563 0,0 -0.85959,-9.29296 -0.85959,-9.29296 0,0 -4.11213,-18.58592 -4.11213,-18.58592 14.6364,-1.92828 29.37736,-2.34647 44.14154,-2.32324 3.96113,0.0116 15.08945,0.51111 18.24905,2.34648 2.8692,1.67273 7.08588,7.63184 9.20003,10.43134 8.23587,10.94245 10.45458,14.10207 15.8561,26.71725 6.52831,15.25207 8.68892,31.28242 10.32681,47.62641 2.9505,29.52837 3.56616,53.23703 -3.53133,82.475 0,0 -2.98537,11.6162 -2.98537,11.6162 -6.87678,19.2945 -15.47277,28.72684 -24.48694,45.30316 -9.67628,17.7844 -18.70207,43.54912 -19.14349,63.88908 z m 47.62641,-284.59682 c 0,0 -1.16162,29.04049 -1.16162,29.04049 0,0 -8.54953,-15.10105 -8.54953,-15.10105 0,0 -12.35963,-17.4243 -12.35963,-17.4243 0,0 22.07078,3.48486 22.07078,3.48486 z m -99.89929,-2.32324 c 0,0 5.29698,29.04049 5.29698,29.04049 2.09093,13.3354 2.85759,27.1819 2.83435,40.6567 -0.0233,14.60156 -3.45001,30.36473 -6.34244,44.64104 -1.19647,5.91264 -2.32324,6.51668 -2.95051,13.43994 0,0 -5.50608,-20.90915 -5.50608,-20.90915 -3.75204,-13.49803 -9.85054,-31.27081 -17.37783,-42.97994 -4.8788,-7.58537 -15.33338,-20.21218 -22.43087,-25.6834 0,0 -23.22078,-14.97328 -23.22078,-14.97328 23.59249,-13.42832 43.38649,-18.43491 69.69718,-23.2324 z m 106.86901,3.48486 c 0,0 -1.16162,6.96972 -1.16162,6.96972 -1.25455,-3.51971 -1.02222,-3.99597 1.16162,-6.96972 z m 6.96972,1.16162 c 0,0 33.68696,11.6859 33.68696,11.6859 0,0 48.78803,23.00006 48.78803,23.00006 0,0 42.97992,31.52637 42.97992,31.52637 0,0 -25.55563,19.84045 -25.55563,19.84045 -16.48337,13.60258 -28.06473,26.5314 -38.49607,45.21024 -7.34143,13.16115 -13.17277,27.18191 -16.83187,41.81832 0,0 -6.7374,32.52535 -6.7374,32.52535 -5.87779,20.59551 -14.38085,37.60163 -25.59047,55.75774 -16.47178,26.6824 -58.58049,54.54966 -62.19312,89.44471 -1.99799,-4.6581 -3.41516,-20.13087 -3.48486,-25.55564 0,0 -1.11516,-18.58591 -1.11516,-18.58591 0,0 1.16162,-12.77782 1.16162,-12.77782 0,0 0,-10.45457 0,-10.45457 2.39294,-23.59249 7.597,-45.7562 19.9334,-66.21232 3.39192,-5.61062 11.27933,-19.8637 16.03035,-23.23239 0.0116,-5.92427 6.31921,-17.72631 8.51467,-24.39401 4.25153,-12.91722 7.72477,-31.73545 7.74801,-45.30317 0,0 -1.48688,-47.62641 -1.48688,-47.62641 -2.8692,-23.82482 -8.86316,-38.0779 -2.7298,-62.72746 1.28939,-5.14597 2.46263,-9.44397 5.3783,-13.93944 z M 361.11408,432.07475 c -5.3783,7.3182 0.73182,9.58337 2.25355,16.30914 0,0 2.69495,16.21621 2.69495,16.21621 1.24293,6.60962 4.91365,19.13189 7.34144,25.55564 0,0 7.9687,19.74753 7.9687,19.74753 0,0 21.54805,41.81831 21.54805,41.81831 9.95508,24.03391 18.36521,68.01283 18.59753,94.09119 0,0 -11.97629,-25.55564 -11.97629,-25.55564 -6.36568,-13.86973 -12.48742,-24.8238 -21.57128,-37.17182 0,0 -14.27631,-18.58591 -14.27631,-18.58591 0,0 -13.03338,-13.93944 -13.03338,-13.93944 0,0 -20.29349,-27.87887 -20.29349,-27.87887 -7.13234,-10.05963 -17.5753,-26.56624 -20.89753,-38.33345 -2.68334,-9.53689 -5.93589,-21.54804 -5.98235,-31.36373 -0.0464,-10.6172 -0.5111,-27.34453 4.298,-36.92789 1.88182,-3.76365 5.29698,-4.44901 7.48083,-7.597 2.88081,-4.12374 1.2894,-8.94447 -2.61364,-11.75559 -4.82073,-3.46162 -10.1061,0.10455 -11.3955,5.16921 -1.0803,4.2283 1.8586,6.64446 1.54496,11.6162 -0.23232,3.57779 -4.93689,15.7051 -5.12275,31.36373 -0.19747,18.26066 6.29598,41.93447 14.74095,58.08099 0,0 16.62279,27.87886 16.62279,27.87886 0,0 -33.68697,-21.86168 -33.68697,-21.86168 -14.06721,-7.65506 -23.89452,-9.20002 -35.90566,-21.22279 0,0 -10.65207,-12.67326 -10.65207,-12.67326 -15.04297,-18.12128 -38.51931,-48.62541 -59.14966,-59.24262 7.39951,-17.18035 26.38038,-43.78143 39.54153,-56.87289 0,0 8.92125,-7.60861 8.92125,-7.60861 0,0 10.77981,-9.86215 10.77981,-9.86215 5.99397,-5.14597 23.52281,-18.63238 31.36374,-18.08642 11.55811,0.80151 27.13544,12.20862 34.74404,20.40965 21.93138,23.61574 29.93494,57.52342 36.11476,88.2831 z m -96.41443,58.08099 c 0,0 -26.71725,-7.70154 -26.71725,-7.70154 0,0 -13.93944,-3.38032 -13.93944,-3.38032 0,0 -11.6162,-1.95152 -11.6162,-1.95152 -4.41415,-1.38233 -6.3889,-4.03082 -9.29295,-4.79748 -7.39952,-1.95153 -13.30054,9.29295 -5.64547,14.64802 6.11011,4.27475 7.98032,-2.23031 17.26166,-0.95254 14.29955,1.97476 33.86122,7.88741 47.62641,12.66167 0,0 32.52534,12.6965 32.52534,12.6965 23.98745,11.99953 53.00471,34.13999 70.52193,54.28249 7.29498,8.38689 13.45156,17.59853 19.75915,26.71725 8.79347,12.73136 25.43948,40.64506 27.04251,55.75774 -11.91821,-8.52629 -13.57933,-12.89398 -29.04049,-20.59551 -6.80709,-3.39193 -13.68388,-4.7975 -20.90916,-6.95811 -16.87832,-5.05304 -33.60565,-7.32981 -51.11126,-8.56113 0,0 -13.93943,-1.05708 -13.93943,-1.05708 -31.39859,-0.0464 -59.01028,1.81213 -88.2831,-12.49903 -6.01718,-2.93889 -16.1349,-7.15557 -20.31672,-12.24346 -3.18284,-3.8682 -6.04042,-19.72431 -6.88841,-25.20715 -5.01819,-32.2001 -4.20506,-31.89808 -4.15859,-63.88908 0.0349,-22.75614 8.52629,-56.86129 19.74753,-76.6669 8.6773,2.76465 15.49601,10.10609 22.07077,16.16974 0,0 7.80609,7.1672 7.80609,7.1672 0,0 37.49708,46.36024 37.49708,46.36024 z m 75.50528,40.65668 c 0,0 0,1.16162 0,1.16162 0,0 -1.16162,-1.16162 -1.16162,-1.16162 0,0 1.16162,0 1.16162,0 z m 1.16162,1.16162 c 0,0 0,1.16163 0,1.16163 0,0 -1.16162,-1.16163 -1.16162,-1.16163 0,0 1.16162,0 1.16162,0 z m -184.69753,13.93944 c 0,0 0,1.16162 0,1.16162 0,0 -1.16162,-1.16162 -1.16162,-1.16162 0,0 1.16162,0 1.16162,0 z m 412.37498,9.29296 c 0,0 0,1.16163 0,1.16163 0,0 -1.16162,-1.16163 -1.16162,-1.16163 0,0 1.16162,0 1.16162,0 z m -15.10106,8.13134 c 0,0 0,1.16162 0,1.16162 0,0 -1.16162,-1.16162 -1.16162,-1.16162 0,0 1.16162,0 1.16162,0 z m -1.16162,1.16162 c 0,0 0,1.16162 0,1.16162 0,0 -1.16162,-1.16162 -1.16162,-1.16162 0,0 1.16162,0 1.16162,0 z m -360.1021,32.52535 c 0,0 0,1.16162 0,1.16162 0,0 -1.16161,-1.16162 -1.16161,-1.16162 0,0 1.16161,0 1.16161,0 z m 1.16163,1.16162 c 20.51421,14.71772 52.78399,22.03592 77.82851,22.07076 0,0 32.52536,0 32.52536,0 0,0 13.93943,1.05709 13.93943,1.05709 17.16874,1.18485 27.3213,2.06768 44.14154,6.91163 29.27283,8.42174 60.35777,29.05211 60.40424,62.89009 0,0 0,4.64648 0,4.64648 -0.12779,10.28033 -3.6475,21.64097 -11.66267,28.49453 -8.02679,6.86517 -18.81824,8.75862 -28.99402,9.897 -14.8339,1.66111 -33.07132,1.45202 -47.62641,-2.09092 0,0 -18.58592,-5.61063 -18.58592,-5.61063 -7.75962,-2.91565 -25.61371,-9.14193 -30.20211,-15.58893 -8.25912,-0.0697 -20.2238,-10.62882 -26.71726,-15.79802 -22.97683,-18.28389 -38.86778,-38.74003 -52.92338,-64.35374 0,0 -9.62983,-20.90915 -9.62983,-20.90915 -1.75404,-4.10052 -3.70557,-7.12072 -2.49748,-11.61619 z m 299.69787,33.68696 c 0,0 0,1.16163 0,1.16163 0,0 -1.16161,-1.16163 -1.16161,-1.16163 0,0 1.16161,0 1.16161,0 z m -70.85879,15.10106 c 0,0 0,1.16162 0,1.16162 0,0 -1.16163,-1.16162 -1.16163,-1.16162 0,0 1.16163,0 1.16163,0 z m -9.29296,1.16162 c 0,0 0,1.16162 0,1.16162 0,0 -1.16163,-1.16162 -1.16163,-1.16162 0,0 1.16163,0 1.16163,0 z m 1.16161,1.16162 c 0,0 0,1.16162 0,1.16162 0,0 -1.16161,-1.16162 -1.16161,-1.16162 0,0 1.16161,0 1.16161,0 z m 1.16162,2.32324 c 0,0 0,1.16162 0,1.16162 0,0 -1.16162,-1.16162 -1.16162,-1.16162 0,0 1.16162,0 1.16162,0 z"
     style="fill:#5b75a5;fill-opacity:1;stroke:#446d9c;stroke-width:1.16161966;stroke-opacity:1"
     inkscape:connector-curvature="0" />
  <ellipse
     style="opacity:1;fill:#5b75a5;fill-opacity:1;stroke:none;stroke-width:2.21989393;stroke-miterlimit:4;stroke-dasharray:none;stroke-dashoffset:0;stroke-opacity:1"
     id="circle828"
     cx="746.24457"
     cy="329.4744"
     rx="103.00958"
     ry="99.838997" />
  <a
     id="a5978"
     xlink:href="/enfoques/Decolonising"
     target="_top"
     transform="translate(100.02913,75.87075)">
    <text
       id="text834"
       y="262.83801"
       x="645.71454"
       style="font-style:normal;font-variant:normal;font-weight:normal;font-stretch:normal;font-size:27.08558273px;line-height:1.25;font-family:sans-serif;-inkscape-font-specification:'sans-serif, Normal';font-variant-ligatures:normal;font-variant-caps:normal;font-variant-numeric:normal;font-feature-settings:normal;text-align:center;letter-spacing:0px;word-spacing:0px;writing-mode:lr-tb;text-anchor:middle;fill:#ffffff;fill-opacity:1;stroke:none;stroke-width:0.31936228"
       xml:space="preserve"><tspan
         style="font-style:normal;font-variant:normal;font-weight:normal;font-stretch:normal;font-size:27.08558273px;font-family:sans-serif;-inkscape-font-specification:'sans-serif, Normal';font-variant-ligatures:normal;font-variant-caps:normal;font-variant-numeric:normal;font-feature-settings:normal;text-align:center;writing-mode:lr-tb;text-anchor:middle;fill:#ffffff;stroke-width:0.31936228"
         y="262.83801"
         x="645.71454"
         sodipodi:role="line"
         id="tspan4555">Decoloniality</tspan></text>
  </a>
  <ellipse
     cy="115.49761"
     cx="578.34265"
     id="circle830"
     style="opacity:1;fill:#5b75a5;fill-opacity:1;stroke:none;stroke-width:2.2568543;stroke-miterlimit:4;stroke-dasharray:none;stroke-dashoffset:0;stroke-opacity:1"
     rx="101.75715"
     ry="104.4613" />
  <a
     id="a5983"
     xlink:href="/enfoques/Transdisciplinarity"
     target="_top"
     transform="translate(-71.860167,-361.66562)">
    <text
       xml:space="preserve"
       style="font-style:normal;font-variant:normal;font-weight:normal;font-stretch:normal;font-size:23.41004181px;line-height:1.25;font-family:sans-serif;-inkscape-font-specification:'sans-serif, Normal';font-variant-ligatures:normal;font-variant-caps:normal;font-variant-numeric:normal;font-feature-settings:normal;text-align:center;letter-spacing:0px;word-spacing:0px;writing-mode:lr-tb;text-anchor:middle;fill:#ffffff;fill-opacity:1;stroke:none;stroke-width:0.31040499"
       x="721.89276"
       y="437.2901"
       id="text842"
       transform="scale(0.90171682,1.1089956)"><tspan
         sodipodi:role="line"
         x="721.89276"
         y="437.2901"
         style="font-style:normal;font-variant:normal;font-weight:normal;font-stretch:normal;font-size:23.41004181px;font-family:sans-serif;-inkscape-font-specification:'sans-serif, Normal';font-variant-ligatures:normal;font-variant-caps:normal;font-variant-numeric:normal;font-feature-settings:normal;text-align:center;writing-mode:lr-tb;text-anchor:middle;fill:#ffffff;stroke-width:0.31040499"
         id="tspan840">Transdisciplinarity</tspan></text>
  </a>
  <circle
     r="99.32885"
     cy="99.327255"
     cx="348.94708"
     id="circle826"
     style="opacity:1;fill:#5b75a5;fill-opacity:1;stroke:none;stroke-width:2.17429662;stroke-miterlimit:4;stroke-dasharray:none;stroke-dashoffset:0;stroke-opacity:1" />
  <a
     id="a5974"
     xlink:href="/enfoques/Transgressive-learning"
     target="_top"
     transform="matrix(0.94348539,0,0,0.92868215,-73.547094,18.200083)">
    <text
       id="text848"
       y="79.220161"
       x="449.19904"
       style="font-style:normal;font-variant:normal;font-weight:normal;font-stretch:normal;font-size:27.08558273px;line-height:1.25;font-family:sans-serif;-inkscape-font-specification:'sans-serif, Normal';font-variant-ligatures:normal;font-variant-caps:normal;font-variant-numeric:normal;font-feature-settings:normal;text-align:center;letter-spacing:0px;word-spacing:0px;writing-mode:lr-tb;text-anchor:middle;fill:#ffffff;fill-opacity:1;stroke:none;stroke-width:0.31936228"
       xml:space="preserve"><tspan
         style="font-style:normal;font-variant:normal;font-weight:normal;font-stretch:normal;font-size:27.08558273px;font-family:sans-serif;-inkscape-font-specification:'sans-serif, Normal';font-variant-ligatures:normal;font-variant-caps:normal;font-variant-numeric:normal;font-feature-settings:normal;text-align:center;writing-mode:lr-tb;text-anchor:middle;fill:#ffffff;stroke-width:0.31936228"
         y="79.220161"
         x="449.19904"
         sodipodi:role="line"
         id="tspan4545">Transgressive</tspan><tspan
         style="font-style:normal;font-variant:normal;font-weight:normal;font-stretch:normal;font-size:27.08558273px;font-family:sans-serif;-inkscape-font-specification:'sans-serif, Normal';font-variant-ligatures:normal;font-variant-caps:normal;font-variant-numeric:normal;font-feature-settings:normal;text-align:center;writing-mode:lr-tb;text-anchor:middle;fill:#ffffff;stroke-width:0.31936228"
         y="113.07714"
         x="449.19904"
         sodipodi:role="line"
         id="tspan4547">learning</tspan></text>
  </a>
  <circle
     style="opacity:1;fill:#8ebbbf;fill-opacity:1;stroke:none;stroke-width:1.92578542;stroke-miterlimit:4;stroke-dasharray:none;stroke-dashoffset:0;stroke-opacity:1"
     id="path824"
     cx="88.93895"
     cy="358.53391"
     r="87.976059" />
  <a
     id="a5969"
     xlink:href="/enfoques/Disruptive-innovation"
     target="_top"
     transform="translate(-60.451897,127.30879)"
     style="stroke:#8475a5;stroke-opacity:1">
    <text
       xml:space="preserve"
       style="font-style:normal;font-variant:normal;font-weight:normal;font-stretch:normal;font-size:27.08558273px;line-height:1.25;font-family:sans-serif;-inkscape-font-specification:'sans-serif, Normal';font-variant-ligatures:normal;font-variant-caps:normal;font-variant-numeric:normal;font-feature-settings:normal;text-align:center;letter-spacing:0px;word-spacing:0px;writing-mode:lr-tb;text-anchor:middle;fill:#ffffff;fill-opacity:1;stroke:#8475a5;stroke-width:0.31936228;stroke-opacity:1"
       x="151.59631"
       y="225.38321"
       id="text852"><tspan
         id="tspan854"
         sodipodi:role="line"
         x="151.59631"
         y="225.38321"
         style="font-style:normal;font-variant:normal;font-weight:normal;font-stretch:normal;font-size:27.08558273px;font-family:sans-serif;-inkscape-font-specification:'sans-serif, Normal';font-variant-ligatures:normal;font-variant-caps:normal;font-variant-numeric:normal;font-feature-settings:normal;text-align:center;writing-mode:lr-tb;text-anchor:middle;fill:#84273d;stroke-width:0.31936228;stroke:none;stroke-opacity:1;fill-opacity:1">Inclusive</tspan><tspan
         sodipodi:role="line"
         x="151.59631"
         y="259.24017"
         style="font-style:normal;font-variant:normal;font-weight:normal;font-stretch:normal;font-size:27.08558273px;font-family:sans-serif;-inkscape-font-specification:'sans-serif, Normal';font-variant-ligatures:normal;font-variant-caps:normal;font-variant-numeric:normal;font-feature-settings:normal;text-align:center;writing-mode:lr-tb;text-anchor:middle;fill:#84273d;stroke-width:0.31936228;stroke:none;stroke-opacity:1;fill-opacity:1"
         id="tspan4541">innovation</tspan></text>
  </a>
</svg>
